\relax 
\citation{rdfmd1,apwthesis,dfmd1,scpthesis}
\@writefile{toc}{\contentsline {chapter}{\numberline {2}digifilter}{2}{chapter.2}}
\@writefile{lof}{\addvspace {10\p@ }}
\@writefile{lot}{\addvspace {10\p@ }}
\newlabel{chp:digifilter}{{2}{2}{digifilter\relax }{chapter.2}{}}
\@writefile{toc}{\contentsline {section}{\numberline {2.1}Concepts}{2}{section.2.1}}
\@writefile{toc}{\contentsline {section}{\numberline {2.2}Command File}{3}{section.2.2}}
\@writefile{toc}{\contentsline {subsection}{\numberline {2.2.1}Commands}{4}{subsection.2.2.1}}
\@writefile{toc}{\contentsline {subsection}{\numberline {2.2.2}param}{5}{subsection.2.2.2}}
\newlabel{sec:param}{{2.2.2}{5}{param\relax }{subsection.2.2.2}{}}
\@writefile{toc}{\contentsline {subsection}{\numberline {2.2.3}read}{6}{subsection.2.2.3}}
\newlabel{sec:read}{{2.2.3}{6}{read\relax }{subsection.2.2.3}{}}
\@writefile{toc}{\contentsline {subsection}{\numberline {2.2.4}write}{8}{subsection.2.2.4}}
\newlabel{sec:write}{{2.2.4}{8}{write\relax }{subsection.2.2.4}{}}
\@writefile{toc}{\contentsline {subsection}{\numberline {2.2.5}stitch}{10}{subsection.2.2.5}}
\newlabel{sec:stitch}{{2.2.5}{10}{stitch\relax }{subsection.2.2.5}{}}
\@writefile{toc}{\contentsline {subsection}{\numberline {2.2.6}strip}{10}{subsection.2.2.6}}
\newlabel{sec:strip}{{2.2.6}{10}{strip\relax }{subsection.2.2.6}{}}
\@writefile{toc}{\contentsline {subsection}{\numberline {2.2.7}remove}{11}{subsection.2.2.7}}
\newlabel{sec:remove}{{2.2.7}{11}{remove\relax }{subsection.2.2.7}{}}
\@writefile{toc}{\contentsline {subsection}{\numberline {2.2.8}mark}{11}{subsection.2.2.8}}
\newlabel{sec:mark}{{2.2.8}{11}{mark\relax }{subsection.2.2.8}{}}
\@writefile{toc}{\contentsline {subsection}{\numberline {2.2.9}clearbuffer}{12}{subsection.2.2.9}}
\newlabel{sec:clearbuffer}{{2.2.9}{12}{clearbuffer\relax }{subsection.2.2.9}{}}
\@writefile{toc}{\contentsline {subsection}{\numberline {2.2.10}avgbuffer}{13}{subsection.2.2.10}}
\newlabel{sec:avgbuffer}{{2.2.10}{13}{avgbuffer\relax }{subsection.2.2.10}{}}
\@writefile{toc}{\contentsline {subsection}{\numberline {2.2.11}kineticnrg}{13}{subsection.2.2.11}}
\newlabel{sec:kineticnrg}{{2.2.11}{13}{kineticnrg\relax }{subsection.2.2.11}{}}
\@writefile{toc}{\contentsline {subsection}{\numberline {2.2.12}removetr}{13}{subsection.2.2.12}}
\newlabel{sec:removetr}{{2.2.12}{13}{removetr\relax }{subsection.2.2.12}{}}
\@writefile{toc}{\contentsline {subsection}{\numberline {2.2.13}removenontr}{14}{subsection.2.2.13}}
\newlabel{sec:removenontr}{{2.2.13}{14}{removenontr\relax }{subsection.2.2.13}{}}
\@writefile{toc}{\contentsline {subsection}{\numberline {2.2.14}filter}{14}{subsection.2.2.14}}
\newlabel{sec:dfilter}{{2.2.14}{14}{filter\relax }{subsection.2.2.14}{}}
\@writefile{lof}{\contentsline {figure}{\numberline {2.1}{\ignorespaces  An example command file to perform RDFMD. }}{16}{figure.2.1}}
\newlabel{fig:dfter-example}{{2.1}{16}{Example\relax }{figure.2.1}{}}
\@writefile{toc}{\contentsline {section}{\numberline {2.3}Example}{16}{section.2.3}}
\@writefile{toc}{\contentsline {section}{\numberline {2.4}Conclusion}{17}{section.2.4}}
\@setckpt{digifilter}{
\setcounter{page}{18}
\setcounter{equation}{2}
\setcounter{enumi}{3}
\setcounter{enumii}{0}
\setcounter{enumiii}{0}
\setcounter{enumiv}{0}
\setcounter{footnote}{0}
\setcounter{mpfootnote}{0}
\setcounter{part}{0}
\setcounter{chapter}{2}
\setcounter{section}{4}
\setcounter{subsection}{0}
\setcounter{subsubsection}{0}
\setcounter{paragraph}{0}
\setcounter{subparagraph}{0}
\setcounter{figure}{1}
\setcounter{table}{0}
\setcounter{parentequation}{0}
\setcounter{subfigure}{0}
\setcounter{lofdepth}{1}
\setcounter{subtable}{0}
\setcounter{lotdepth}{1}
\setcounter{LT@tables}{0}
\setcounter{LT@chunks}{0}
\setcounter{float@type}{4}
\setcounter{Item}{27}
\setcounter{section@level}{1}
}
