\relax 
\@writefile{toc}{\contentsline {chapter}{\numberline {4}Examples}{39}{chapter.4}}
\@writefile{lof}{\addvspace {10\p@ }}
\@writefile{lot}{\addvspace {10\p@ }}
\newlabel{chp:example}{{4}{39}{Examples\relax }{chapter.4}{}}
\@writefile{toc}{\contentsline {section}{\numberline {4.1}Alanine Dipeptide}{39}{section.4.1}}
\@writefile{toc}{\contentsline {section}{\numberline {4.2}Alanine Decapeptide}{40}{section.4.2}}
\@writefile{toc}{\contentsline {section}{\numberline {4.3}Folate}{40}{section.4.3}}
\@writefile{toc}{\contentsline {section}{\numberline {4.4}Water}{40}{section.4.4}}
\@writefile{toc}{\contentsline {section}{\numberline {4.5}Conclusion}{41}{section.4.5}}
\@setckpt{example}{
\setcounter{page}{42}
\setcounter{equation}{0}
\setcounter{enumi}{6}
\setcounter{enumii}{0}
\setcounter{enumiii}{0}
\setcounter{enumiv}{0}
\setcounter{footnote}{0}
\setcounter{mpfootnote}{0}
\setcounter{part}{0}
\setcounter{chapter}{4}
\setcounter{section}{5}
\setcounter{subsection}{0}
\setcounter{subsubsection}{0}
\setcounter{paragraph}{0}
\setcounter{subparagraph}{0}
\setcounter{figure}{0}
\setcounter{table}{0}
\setcounter{parentequation}{0}
\setcounter{subfigure}{0}
\setcounter{lofdepth}{1}
\setcounter{subtable}{0}
\setcounter{lotdepth}{1}
\setcounter{LT@tables}{0}
\setcounter{LT@chunks}{0}
\setcounter{float@type}{4}
\setcounter{Item}{33}
\setcounter{section@level}{1}
}
