\relax 
\@writefile{toc}{\contentsline {chapter}{\numberline {B}Creating the Filter File}{46}{appendix.B}}
\@writefile{lof}{\addvspace {10\p@ }}
\@writefile{lot}{\addvspace {10\p@ }}
\newlabel{chp:filter}{{B}{46}{Creating the Filter File\relax }{appendix.B}{}}
\@writefile{toc}{\contentsline {section}{\numberline {B.1}Filter Format}{46}{section.B.1}}
\@writefile{toc}{\contentsline {subsection}{\numberline {B.1.1}The Averaging Filter}{47}{subsection.B.1.1}}
\@writefile{toc}{\contentsline {subsection}{\numberline {B.1.2}The Nuke Filter}{47}{subsection.B.1.2}}
\@writefile{toc}{\contentsline {subsection}{\numberline {B.1.3}The Matlab filter}{47}{subsection.B.1.3}}
\@writefile{toc}{\contentsline {section}{\numberline {B.2}How to Create a Filter}{47}{section.B.2}}
\@writefile{lof}{\contentsline {figure}{\numberline {B.1}{\ignorespaces  A small matlab script to 2001 coefficient, 0-300\nobreakspace  {}cm$^{-1}$ filter, that is saved to the file called filter0\_300. }}{49}{figure.B.1}}
\newlabel{fig:matlab}{{B.1}{49}{How to Create a Filter\relax }{figure.B.1}{}}
\@writefile{lof}{\contentsline {figure}{\numberline {B.2}{\ignorespaces  Script used to view the frequency response of a filter. }}{50}{figure.B.2}}
\newlabel{fig:filterscript}{{B.2}{50}{Visualising a Filter\relax }{figure.B.2}{}}
\@writefile{toc}{\contentsline {section}{\numberline {B.3}Visualising a Filter}{50}{section.B.3}}
\newlabel{sec:viewfilter}{{B.3}{50}{Visualising a Filter\relax }{section.B.3}{}}
\@writefile{lof}{\contentsline {figure}{\numberline {B.3}{\ignorespaces  The graph of the frequency response of a 0-300\nobreakspace  {}cm$^{-1}$ filter. }}{51}{figure.B.3}}
\newlabel{fig:xmgrace}{{B.3}{51}{Visualising a Filter\relax }{figure.B.3}{}}
\@setckpt{filter}{
\setcounter{page}{52}
\setcounter{equation}{2}
\setcounter{enumi}{3}
\setcounter{enumii}{0}
\setcounter{enumiii}{0}
\setcounter{enumiv}{0}
\setcounter{footnote}{0}
\setcounter{mpfootnote}{0}
\setcounter{part}{0}
\setcounter{chapter}{2}
\setcounter{section}{3}
\setcounter{subsection}{0}
\setcounter{subsubsection}{0}
\setcounter{paragraph}{0}
\setcounter{subparagraph}{0}
\setcounter{figure}{3}
\setcounter{table}{0}
\setcounter{parentequation}{0}
\setcounter{subfigure}{0}
\setcounter{lofdepth}{1}
\setcounter{subtable}{0}
\setcounter{lotdepth}{1}
\setcounter{LT@tables}{0}
\setcounter{LT@chunks}{0}
\setcounter{float@type}{4}
\setcounter{Item}{36}
\setcounter{section@level}{1}
}
