\relax 
\ifx\hyper@anchor\@undefined
\global \let \oldcontentsline\contentsline
\gdef \contentsline#1#2#3#4{\oldcontentsline{#1}{#2}{#3}}
\global \let \oldnewlabel\newlabel
\gdef \newlabel#1#2{\newlabelxx{#1}#2}
\gdef \newlabelxx#1#2#3#4#5#6{\oldnewlabel{#1}{{#2}{#3}}}
\AtEndDocument{\let \contentsline\oldcontentsline
\let \newlabel\oldnewlabel}
\else
\global \let \hyper@last\relax 
\fi

\citation{rdfmd1,apwthesis}
\citation{dfmd1,scpthesis}
\@writefile{toc}{\contentsline {chapter}{\numberline {1}Introduction}{1}{chapter.1}}
\@writefile{lof}{\addvspace {10\p@ }}
\@writefile{lot}{\addvspace {10\p@ }}
\@input{digifilter.aux}
\@input{rdfmd.aux}
\@input{example.aux}
\@input{system.aux}
\@input{filter.aux}
\@input{stitch.aux}
\bibdata{references}
\bibcite{rdfmd1}{1}
\bibcite{apwthesis}{2}
\bibcite{dfmd1}{3}
\bibcite{scpthesis}{4}
\bibstyle{jcc}
