\relax 
\@writefile{toc}{\contentsline {chapter}{\numberline {3}rdfmd}{18}{chapter.3}}
\@writefile{lof}{\addvspace {10\p@ }}
\@writefile{lot}{\addvspace {10\p@ }}
\newlabel{chp:rdfmd}{{3}{18}{rdfmd\relax }{chapter.3}{}}
\@writefile{toc}{\contentsline {section}{\numberline {3.1}Concepts}{18}{section.3.1}}
\@writefile{lof}{\contentsline {figure}{\numberline {3.1}{\ignorespaces  A diagrammatic representation of digital filtering. }}{19}{figure.3.1}}
\newlabel{fig:rdfmd}{{3.1}{19}{Concepts\relax }{figure.3.1}{}}
\@writefile{lof}{\contentsline {figure}{\numberline {3.2}{\ignorespaces  A diagrammatic representation of a complete RDFMD filter application. }}{20}{figure.3.2}}
\newlabel{fig:fdelay}{{3.2}{20}{Concepts\relax }{figure.3.2}{}}
\@writefile{lof}{\contentsline {figure}{\numberline {3.3}{\ignorespaces  A diagrammatic representation of a complete RDFMD simulation, interspersing normal NVT or NPT molecular dynamics with applications of the digital filter. }}{21}{figure.3.3}}
\newlabel{fig:fullsim}{{3.3}{21}{Concepts\relax }{figure.3.3}{}}
\@writefile{toc}{\contentsline {subsection}{\numberline {3.1.1}Requirements of an RDFMD software system}{21}{subsection.3.1.1}}
\@writefile{toc}{\contentsline {section}{\numberline {3.2}The rdfmd module, an overview}{22}{section.3.2}}
\@writefile{toc}{\contentsline {subsection}{\numberline {3.2.1}Key classes}{22}{subsection.3.2.1}}
\@writefile{toc}{\contentsline {subsection}{\numberline {3.2.2}Example}{23}{subsection.3.2.2}}
\newlabel{sec:rdfmd-example}{{3.2.2}{23}{Example\relax }{subsection.3.2.2}{}}
\@writefile{lof}{\contentsline {figure}{\numberline {3.4}{\ignorespaces  The python script used to perform an RDFMD simulation on an alanine dipeptide example system. }}{25}{figure.3.4}}
\newlabel{fig:wat-cmd}{{3.4}{25}{Example\relax }{figure.3.4}{}}
\@writefile{toc}{\contentsline {section}{\numberline {3.3}The rdfmd module, the specifics}{27}{section.3.3}}
\@writefile{toc}{\contentsline {subsection}{\numberline {3.3.1}DFSim}{27}{subsection.3.3.1}}
\@writefile{toc}{\contentsline {subsection}{\numberline {3.3.2}NamdDriver}{29}{subsection.3.3.2}}
\@writefile{toc}{\contentsline {subsection}{\numberline {3.3.3}NamdSim}{29}{subsection.3.3.3}}
\@writefile{toc}{\contentsline {subsection}{\numberline {3.3.4}DFDriver}{32}{subsection.3.3.4}}
\@writefile{toc}{\contentsline {subsection}{\numberline {3.3.5}DFConf}{32}{subsection.3.3.5}}
\@writefile{toc}{\contentsline {subsection}{\numberline {3.3.6}NamdDFConf}{33}{subsection.3.3.6}}
\@writefile{toc}{\contentsline {subsection}{\numberline {3.3.7}NamdMonitor}{33}{subsection.3.3.7}}
\@writefile{toc}{\contentsline {subsection}{\numberline {3.3.8}SimDir}{34}{subsection.3.3.8}}
\@writefile{toc}{\contentsline {subsection}{\numberline {3.3.9}File}{35}{subsection.3.3.9}}
\@writefile{toc}{\contentsline {subsection}{\numberline {3.3.10}Marker}{37}{subsection.3.3.10}}
\@writefile{toc}{\contentsline {section}{\numberline {3.4}Diagnosing problems}{37}{section.3.4}}
\@writefile{toc}{\contentsline {section}{\numberline {3.5}Conclusion}{38}{section.3.5}}
\@setckpt{rdfmd}{
\setcounter{page}{39}
\setcounter{equation}{2}
\setcounter{enumi}{6}
\setcounter{enumii}{0}
\setcounter{enumiii}{0}
\setcounter{enumiv}{0}
\setcounter{footnote}{0}
\setcounter{mpfootnote}{0}
\setcounter{part}{0}
\setcounter{chapter}{3}
\setcounter{section}{5}
\setcounter{subsection}{0}
\setcounter{subsubsection}{0}
\setcounter{paragraph}{0}
\setcounter{subparagraph}{0}
\setcounter{figure}{4}
\setcounter{table}{0}
\setcounter{parentequation}{0}
\setcounter{subfigure}{0}
\setcounter{lofdepth}{1}
\setcounter{subtable}{0}
\setcounter{lotdepth}{1}
\setcounter{LT@tables}{0}
\setcounter{LT@chunks}{0}
\setcounter{float@type}{4}
\setcounter{Item}{33}
\setcounter{section@level}{1}
}
