\relax 
\@writefile{toc}{\contentsline {chapter}{\numberline {A}Creating the System PDB File}{42}{appendix.A}}
\@writefile{lof}{\addvspace {10\p@ }}
\@writefile{lot}{\addvspace {10\p@ }}
\newlabel{chp:marker}{{A}{42}{Creating the System PDB File\relax }{appendix.A}{}}
\@writefile{toc}{\contentsline {section}{\numberline {A.1}Creating the initial PDB file}{42}{section.A.1}}
\@writefile{lof}{\contentsline {figure}{\numberline {A.1}{\ignorespaces  A simple python script that creates a system PDB file from system.pdb, marking atoms 10 to 20 inclusive, and writing the result to system-marked.pdb. }}{43}{figure.A.1}}
\newlabel{fig:marker}{{A.1}{43}{Using Marker.py\relax }{figure.A.1}{}}
\@writefile{toc}{\contentsline {section}{\numberline {A.2}Using Marker.py}{43}{section.A.2}}
\newlabel{sec:marker}{{A.2}{43}{Using Marker.py\relax }{section.A.2}{}}
\@writefile{toc}{\contentsline {section}{\numberline {A.3}Conclusion}{45}{section.A.3}}
\@setckpt{system}{
\setcounter{page}{46}
\setcounter{equation}{0}
\setcounter{enumi}{3}
\setcounter{enumii}{0}
\setcounter{enumiii}{0}
\setcounter{enumiv}{0}
\setcounter{footnote}{0}
\setcounter{mpfootnote}{0}
\setcounter{part}{0}
\setcounter{chapter}{1}
\setcounter{section}{3}
\setcounter{subsection}{0}
\setcounter{subsubsection}{0}
\setcounter{paragraph}{0}
\setcounter{subparagraph}{0}
\setcounter{figure}{1}
\setcounter{table}{0}
\setcounter{parentequation}{0}
\setcounter{subfigure}{0}
\setcounter{lofdepth}{1}
\setcounter{subtable}{0}
\setcounter{lotdepth}{1}
\setcounter{LT@tables}{0}
\setcounter{LT@chunks}{0}
\setcounter{float@type}{4}
\setcounter{Item}{36}
\setcounter{section@level}{1}
}
