%!PS-Adobe-3.0 EPSF-3.0
%%BoundingBox: (atend)
%%LanguageLevel: 2
%%Creator: Grace-5.1.13
%%CreationDate: Wed Jun 22 14:53:11 2005
%%DocumentData: Clean8Bit
%%Orientation: Portrait
%%Title: view.data
%%For: chris
%%DocumentNeededResources: (atend)
%%EndComments
%%BeginProlog
/m {moveto} def
/l {lineto} def
/s {stroke} def
/n {newpath} def
/c {closepath} def
/RL {rlineto} def
/SLW {setlinewidth} def
/GS {gsave} def
/GR {grestore} def
/SC {setcolor} def
/SGRY {setgray} def
/SRGB {setrgbcolor} def
/SD {setdash} def
/SLC {setlinecap} def
/SLJ {setlinejoin} def
/SCS {setcolorspace} def
/FFSF {findfont setfont} def
/CC {concat} def
/PXL {n m 0 0 RL s} def
/Color0 {1.0000} def
/Color1 {0.0000} def
/Color2 {0.2990} def
/Color3 {0.5870} def
/Color4 {0.1140} def
/Color5 {0.8860} def
/Color6 {0.6135} def
/Color7 {0.8627} def
/Color8 {0.2679} def
/Color9 {0.7010} def
/Color10 {0.4130} def
/Color11 {0.6788} def
/Color12 {0.2937} def
/Color13 {0.1691} def
/Color14 {0.6837} def
/Color15 {0.3200} def
/Color16 {0.7529} def
/Color17 {0.5059} def
/Color18 {0.2588} def
/PTRN {
 /pat_bits exch def 
 <<
  /PaintType 2
  /PatternType 1 /TilingType 1
  /BBox[0 0 16 16]
  /XStep 16 /YStep 16
  /PaintProc {
   pop
   16 16 true [-1 0 0 -1 16 16] pat_bits imagemask
  }
 >>
 [0.0016 0 0 0.0016 0 0]
 makepattern
} def
/Pattern0 {<0000000000000000000000000000000000000000000000000000000000000000> PTRN} bind def
/Pattern1 {<ffffffffffffffffffffffffffffffffffffffffffffffffffffffffffffffff> PTRN} bind def
/Pattern2 {<eeeeffffbbbbffffeeeeffffbbbbffffeeeeffffbbbbffffeeeeffffbbbbffff> PTRN} bind def
/Pattern3 {<eeeebbbbeeeebbbbeeeebbbbeeeebbbbeeeebbbbeeeebbbbeeeebbbbeeeebbbb> PTRN} bind def
/Pattern4 {<5555aaaa5555aaaa5555aaaa5555aaaa5555aaaa5555aaaa5555aaaa5555aaaa> PTRN} bind def
/Pattern5 {<1111444411114444111144441111444411114444111144441111444411114444> PTRN} bind def
/Pattern6 {<1111000044440000111100004444000011110000444400001111000044440000> PTRN} bind def
/Pattern7 {<1010000000000000010100000000000010100000000000000101000000000000> PTRN} bind def
/Pattern8 {<0000000000000000000000000000000000000000000000000000000000000000> PTRN} bind def
/Pattern9 {<1e1e0f0f8787c3c3e1e1f0f078783c3c1e1e0f0f8787c3c3e1e1f0f078783c3c> PTRN} bind def
/Pattern10 {<7878f0f0e1e1c3c387870f0f1e1e3c3c7878f0f0e1e1c3c387870f0f1e1e3c3c> PTRN} bind def
/Pattern11 {<3333333333333333333333333333333333333333333333333333333333333333> PTRN} bind def
/Pattern12 {<ffffffff00000000ffffffff00000000ffffffff00000000ffffffff00000000> PTRN} bind def
/Pattern13 {<8181424224241818181824244242818181814242242418181818242442428181> PTRN} bind def
/Pattern14 {<8080404020201010080804040202010180804040202010100808040402020101> PTRN} bind def
/Pattern15 {<0101020204040808101020204040808001010202040408081010202040408080> PTRN} bind def
/Pattern16 {<2222222222222222222222222222222222222222222222222222222222222222> PTRN} bind def
/Pattern17 {<0000ffff000000000000ffff000000000000ffff000000000000ffff00000000> PTRN} bind def
/Pattern18 {<2222ffff222222222222ffff222222222222ffff222222222222ffff22222222> PTRN} bind def
/Pattern19 {<ffffffff33333333ffffffff33333333ffffffff33333333ffffffff33333333> PTRN} bind def
/Pattern20 {<0f0f0f0f0f0f0f0ff0f0f0f0f0f0f0f00f0f0f0f0f0f0f0ff0f0f0f0f0f0f0f0> PTRN} bind def
/Pattern21 {<ff00ff00ff00ff00ff00ff00ff00ff0000ff00ff00ff00ff00ff00ff00ff00ff> PTRN} bind def
/Pattern22 {<8001800180018001800180018001ffffffff8001800180018001800180018001> PTRN} bind def
/Pattern23 {<c003c003c003c003c003c003ffffffffffffffffc003c003c003c003c003c003> PTRN} bind def
/Pattern24 {<040404040404ffff404040404040ffff040404040404ffff404040404040ffff> PTRN} bind def
/Pattern25 {<180018001800180018001800ffffffff001800180018001800180018ffffffff> PTRN} bind def
/Pattern26 {<1111b8b87c7c3a3a1111a3a3c7c78b8b1111b8b87c7c3a3a1111a3a3c7c78b8b> PTRN} bind def
/Pattern27 {<101010102828c7c70101010182827c7c101010102828c7c70101010182827c7c> PTRN} bind def
/Pattern28 {<1c1c121211112121c1c12121111112121c1c121211112121c1c1212111111212> PTRN} bind def
/Pattern29 {<3e3e414180808080e3e31414080808083e3e414180808080e3e3141408080808> PTRN} bind def
/Pattern30 {<4848888884848383848488884848383848488888848483838484888848483838> PTRN} bind def
/Pattern31 {<03030404080808080c0c12122121c0c003030404080808080c0c12122121c0c0> PTRN} bind def
/ellipsedict 8 dict def
ellipsedict /mtrx matrix put
/EARC {
 ellipsedict begin
  /endangle exch def
  /startangle exch def
  /yrad exch def
  /xrad exch def
  /y exch def
  /x exch def
  /savematrix mtrx currentmatrix def
  x y translate
  xrad yrad scale
  0 0 1 startangle endangle arc
  savematrix setmatrix
 end
} def
/TL {
  /kcomp exch def
  /linewidth exch def
  /offset exch def
  GS
  0 offset rmoveto
  linewidth SLW
  dup stringwidth exch kcomp add exch RL s
  GR
} def
/KINIT
{
 /kvector exch def
 /kid 0 def
} def
/KPROC
{
 pop pop
 kvector kid get
 0 rmoveto
 /kid 1 kid add def
} def
/DefEncoding [
 /.notdef
 /.notdef
 /.notdef
 /.notdef
 /.notdef
 /.notdef
 /.notdef
 /.notdef
 /.notdef
 /.notdef
 /.notdef
 /.notdef
 /.notdef
 /.notdef
 /.notdef
 /.notdef
 /.notdef
 /.notdef
 /.notdef
 /.notdef
 /.notdef
 /.notdef
 /.notdef
 /.notdef
 /.notdef
 /.notdef
 /.notdef
 /.notdef
 /.notdef
 /.notdef
 /.notdef
 /.notdef
 /space
 /exclam
 /quotedbl
 /numbersign
 /dollar
 /percent
 /ampersand
 /quoteright
 /parenleft
 /parenright
 /asterisk
 /plus
 /comma
 /hyphen
 /period
 /slash
 /zero
 /one
 /two
 /three
 /four
 /five
 /six
 /seven
 /eight
 /nine
 /colon
 /semicolon
 /less
 /equal
 /greater
 /question
 /at
 /A
 /B
 /C
 /D
 /E
 /F
 /G
 /H
 /I
 /J
 /K
 /L
 /M
 /N
 /O
 /P
 /Q
 /R
 /S
 /T
 /U
 /V
 /W
 /X
 /Y
 /Z
 /bracketleft
 /backslash
 /bracketright
 /asciicircum
 /underscore
 /grave
 /a
 /b
 /c
 /d
 /e
 /f
 /g
 /h
 /i
 /j
 /k
 /l
 /m
 /n
 /o
 /p
 /q
 /r
 /s
 /t
 /u
 /v
 /w
 /x
 /y
 /z
 /braceleft
 /bar
 /braceright
 /asciitilde
 /.notdef
 /.notdef
 /.notdef
 /.notdef
 /.notdef
 /.notdef
 /.notdef
 /.notdef
 /.notdef
 /.notdef
 /.notdef
 /.notdef
 /.notdef
 /.notdef
 /.notdef
 /.notdef
 /.notdef
 /.notdef
 /.notdef
 /.notdef
 /.notdef
 /.notdef
 /.notdef
 /.notdef
 /.notdef
 /.notdef
 /.notdef
 /.notdef
 /.notdef
 /.notdef
 /.notdef
 /.notdef
 /.notdef
 /space
 /exclamdown
 /cent
 /sterling
 /currency
 /yen
 /brokenbar
 /section
 /dieresis
 /copyright
 /ordfeminine
 /guillemotleft
 /logicalnot
 /hyphen
 /registered
 /macron
 /degree
 /plusminus
 /twosuperior
 /threesuperior
 /acute
 /mu
 /paragraph
 /periodcentered
 /cedilla
 /onesuperior
 /ordmasculine
 /guillemotright
 /onequarter
 /onehalf
 /threequarters
 /questiondown
 /Agrave
 /Aacute
 /Acircumflex
 /Atilde
 /Adieresis
 /Aring
 /AE
 /Ccedilla
 /Egrave
 /Eacute
 /Ecircumflex
 /Edieresis
 /Igrave
 /Iacute
 /Icircumflex
 /Idieresis
 /Eth
 /Ntilde
 /Ograve
 /Oacute
 /Ocircumflex
 /Otilde
 /Odieresis
 /multiply
 /Oslash
 /Ugrave
 /Uacute
 /Ucircumflex
 /Udieresis
 /Yacute
 /Thorn
 /germandbls
 /agrave
 /aacute
 /acircumflex
 /atilde
 /adieresis
 /aring
 /ae
 /ccedilla
 /egrave
 /eacute
 /ecircumflex
 /edieresis
 /igrave
 /iacute
 /icircumflex
 /idieresis
 /eth
 /ntilde
 /ograve
 /oacute
 /ocircumflex
 /otilde
 /odieresis
 /divide
 /oslash
 /ugrave
 /uacute
 /ucircumflex
 /udieresis
 /yacute
 /thorn
 /ydieresis
] def
%%EndProlog
%%BeginSetup
612.00 612.00 scale
%%EndSetup
n
0.0000 0.0000 m
0.0000 1.0000 l
1.2941 1.0000 l
1.2941 0.0000 l
c
[/DeviceGray] SCS
Color0 SC
fill
[/DeviceGray] SCS
Color1 SC
[] 0 SD
0.0015 SLW
0 SLC
0 SLJ
n
0.1500 0.5036 m
0.1542 0.5034 l
0.1583 0.5029 l
0.1625 0.5022 l
0.1667 0.5012 l
0.1708 0.5002 l
0.1750 0.4991 l
0.1792 0.4981 l
0.1834 0.4973 l
0.1875 0.4967 l
0.1917 0.4964 l
0.1959 0.4965 l
0.2000 0.4969 l
0.2042 0.4975 l
0.2084 0.4984 l
0.2125 0.4995 l
0.2167 0.5006 l
0.2209 0.5016 l
0.2251 0.5025 l
0.2292 0.5032 l
0.2334 0.5036 l
0.2376 0.5036 l
0.2417 0.5033 l
0.2459 0.5027 l
0.2501 0.5019 l
0.2542 0.5009 l
0.2584 0.4998 l
0.2626 0.4987 l
0.2667 0.4977 l
0.2709 0.4970 l
0.2751 0.4965 l
0.2793 0.4963 l
0.2834 0.4965 l
0.2876 0.4970 l
0.2918 0.4977 l
0.2959 0.4987 l
0.3001 0.4999 l
0.3043 0.5010 l
0.3084 0.5020 l
0.3126 0.5029 l
0.3168 0.5035 l
0.3209 0.5038 l
0.3251 0.5037 l
0.3293 0.5033 l
0.3335 0.5026 l
0.3376 0.5017 l
0.3418 0.5005 l
0.3460 0.4994 l
0.3501 0.4982 l
0.3543 0.4972 l
0.3585 0.4965 l
0.3626 0.4961 l
0.3668 0.4960 l
0.3710 0.4963 l
0.3752 0.4970 l
0.3793 0.4979 l
0.3835 0.4990 l
0.3877 0.5003 l
0.3918 0.5015 l
0.3960 0.5026 l
0.4002 0.5034 l
0.4043 0.5040 l
0.4085 0.5042 l
0.4127 0.5040 l
0.4168 0.5035 l
0.4210 0.5026 l
0.4252 0.5014 l
0.4294 0.5002 l
0.4335 0.4989 l
0.4377 0.4976 l
0.4419 0.4966 l
0.4460 0.4959 l
0.4502 0.4956 l
0.4544 0.4956 l
0.4585 0.4961 l
0.4627 0.4969 l
0.4669 0.4980 l
0.4711 0.4993 l
0.4752 0.5007 l
0.4794 0.5021 l
0.4836 0.5033 l
0.4877 0.5042 l
0.4919 0.5047 l
0.4961 0.5048 l
0.5002 0.5045 l
0.5044 0.5037 l
0.5086 0.5026 l
0.5127 0.5013 l
0.5169 0.4998 l
0.5211 0.4983 l
0.5253 0.4969 l
0.5294 0.4958 l
0.5336 0.4950 l
0.5378 0.4947 l
0.5419 0.4949 l
0.5461 0.4955 l
0.5503 0.4966 l
0.5544 0.4980 l
0.5586 0.4996 l
0.5628 0.5013 l
0.5669 0.5029 l
0.5711 0.5043 l
0.5753 0.5053 l
0.5795 0.5058 l
0.5836 0.5058 l
0.5878 0.5053 l
0.5920 0.5043 l
0.5961 0.5029 l
0.6003 0.5012 l
0.6045 0.4993 l
0.6086 0.4975 l
0.6128 0.4958 l
0.6170 0.4944 l
0.6212 0.4936 l
0.6253 0.4933 l
0.6295 0.4936 l
0.6337 0.4945 l
0.6378 0.4959 l
0.6420 0.4977 l
0.6462 0.4998 l
0.6503 0.5020 l
0.6545 0.5041 l
0.6587 0.5058 l
0.6628 0.5071 l
0.6670 0.5078 l
0.6712 0.5078 l
0.6754 0.5071 l
0.6795 0.5057 l
0.6837 0.5038 l
0.6879 0.5014 l
0.6920 0.4989 l
0.6962 0.4963 l
0.7004 0.4940 l
0.7045 0.4921 l
0.7087 0.4909 l
0.7129 0.4904 l
0.7171 0.4908 l
0.7212 0.4920 l
0.7254 0.4940 l
0.7296 0.4966 l
0.7337 0.4996 l
0.7379 0.5029 l
0.7421 0.5060 l
0.7462 0.5088 l
0.7504 0.5109 l
0.7546 0.5122 l
0.7587 0.5124 l
0.7629 0.5116 l
0.7671 0.5097 l
0.7713 0.5068 l
0.7754 0.5031 l
0.7796 0.4989 l
0.7838 0.4945 l
0.7879 0.4903 l
0.7921 0.4867 l
0.7963 0.4839 l
0.8004 0.4824 l
0.8046 0.4822 l
0.8088 0.4836 l
0.8130 0.4866 l
0.8171 0.4911 l
0.8213 0.4968 l
0.8255 0.5033 l
0.8296 0.5103 l
0.8338 0.5172 l
0.8380 0.5234 l
0.8421 0.5283 l
0.8463 0.5314 l
0.8505 0.5321 l
0.8546 0.5301 l
0.8588 0.5249 l
0.8630 0.5165 l
0.8672 0.5046 l
0.8713 0.4895 l
0.8755 0.4713 l
0.8797 0.4505 l
0.8838 0.4274 l
0.8880 0.4027 l
0.8922 0.3769 l
0.8963 0.3507 l
0.9005 0.3247 l
0.9047 0.2995 l
0.9088 0.2755 l
0.9130 0.2533 l
0.9172 0.2332 l
0.9214 0.2153 l
0.9255 0.1999 l
0.9297 0.1869 l
0.9339 0.1762 l
0.9380 0.1678 l
0.9422 0.1614 l
0.9464 0.1567 l
0.9505 0.1535 l
0.9547 0.1515 l
0.9589 0.1503 l
0.9631 0.1502 l
0.9672 0.1503 l
0.9714 0.1502 l
0.9756 0.1500 l
0.9797 0.1502 l
0.9839 0.1503 l
0.9881 0.1503 l
0.9922 0.1503 l
0.9964 0.1502 l
1.0006 0.1501 l
1.0047 0.1501 l
1.0089 0.1502 l
1.0131 0.1503 l
1.0173 0.1503 l
1.0214 0.1503 l
1.0256 0.1503 l
1.0298 0.1501 l
1.0339 0.1500 l
1.0381 0.1501 l
1.0423 0.1502 l
1.0464 0.1503 l
1.0506 0.1503 l
1.0548 0.1503 l
1.0590 0.1503 l
1.0631 0.1502 l
1.0673 0.1501 l
1.0715 0.1500 l
1.0756 0.1502 l
1.0798 0.1503 l
1.0840 0.1503 l
1.0881 0.1503 l
1.0923 0.1503 l
1.0965 0.1503 l
1.1006 0.1502 l
1.1048 0.1501 l
1.1090 0.1501 l
1.1132 0.1502 l
1.1173 0.1503 l
1.1215 0.1503 l
1.1257 0.1503 l
1.1298 0.1503 l
1.1340 0.1503 l
1.1382 0.1502 l
1.1423 0.1501 l
1.1465 0.1500 l
1.1501 0.1501 l
s
n
0.1500 0.1500 m
1.1500 0.1500 l
s
n
0.1500 0.8500 m
1.1500 0.8500 l
s
n
0.2125 0.1500 m
0.2125 0.1600 l
s
n
0.2125 0.8500 m
0.2125 0.8400 l
s
n
0.3375 0.1500 m
0.3375 0.1600 l
s
n
0.3375 0.8500 m
0.3375 0.8400 l
s
n
0.4625 0.1500 m
0.4625 0.1600 l
s
n
0.4625 0.8500 m
0.4625 0.8400 l
s
n
0.5875 0.1500 m
0.5875 0.1600 l
s
n
0.5875 0.8500 m
0.5875 0.8400 l
s
n
0.7125 0.1500 m
0.7125 0.1600 l
s
n
0.7125 0.8500 m
0.7125 0.8400 l
s
n
0.8375 0.1500 m
0.8375 0.1600 l
s
n
0.8375 0.8500 m
0.8375 0.8400 l
s
n
0.9625 0.1500 m
0.9625 0.1600 l
s
n
0.9625 0.8500 m
0.9625 0.8400 l
s
n
1.0875 0.1500 m
1.0875 0.1600 l
s
n
1.0875 0.8500 m
1.0875 0.8400 l
s
n
0.1500 0.1500 m
0.1500 0.1700 l
s
n
0.1500 0.8500 m
0.1500 0.8300 l
s
n
0.2750 0.1500 m
0.2750 0.1700 l
s
n
0.2750 0.8500 m
0.2750 0.8300 l
s
n
0.4000 0.1500 m
0.4000 0.1700 l
s
n
0.4000 0.8500 m
0.4000 0.8300 l
s
n
0.5250 0.1500 m
0.5250 0.1700 l
s
n
0.5250 0.8500 m
0.5250 0.8300 l
s
n
0.6500 0.1500 m
0.6500 0.1700 l
s
n
0.6500 0.8500 m
0.6500 0.8300 l
s
n
0.7750 0.1500 m
0.7750 0.1700 l
s
n
0.7750 0.8500 m
0.7750 0.8300 l
s
n
0.9000 0.1500 m
0.9000 0.1700 l
s
n
0.9000 0.8500 m
0.9000 0.8300 l
s
n
1.0250 0.1500 m
1.0250 0.1700 l
s
n
1.0250 0.8500 m
1.0250 0.8300 l
s
n
1.1500 0.1500 m
1.1500 0.1700 l
s
n
1.1500 0.8500 m
1.1500 0.8300 l
s
/Times-Roman findfont
dup length dict begin
 {1 index /FID ne {def} {pop pop} ifelse} forall
 /Encoding DefEncoding def
 currentdict
end
/Font0 exch definefont pop
/Font0 FFSF
0.1398 0.1106 m
GS
[0.0431 0.0000 0.0000 0.0431 0 0] CC
(0) show
GR
/Font0 FFSF
0.2540 0.1102 m
GS
[0.0431 0.0000 0.0000 0.0431 0 0] CC
(50) show
GR
/Font0 FFSF
0.3682 0.1106 m
GS
[0.0431 0.0000 0.0000 0.0431 0 0] CC
(100) show
GR
/Font0 FFSF
0.4932 0.1102 m
GS
[0.0431 0.0000 0.0000 0.0431 0 0] CC
(150) show
GR
/Font0 FFSF
0.6182 0.1106 m
GS
[0.0431 0.0000 0.0000 0.0431 0 0] CC
(200) show
GR
/Font0 FFSF
0.7432 0.1102 m
GS
[0.0431 0.0000 0.0000 0.0431 0 0] CC
(250) show
GR
/Font0 FFSF
0.8682 0.1106 m
GS
[0.0431 0.0000 0.0000 0.0431 0 0] CC
(300) show
GR
/Font0 FFSF
0.9932 0.1102 m
GS
[0.0431 0.0000 0.0000 0.0431 0 0] CC
(350) show
GR
/Font0 FFSF
1.1182 0.1106 m
GS
[0.0431 0.0000 0.0000 0.0431 0 0] CC
(400) show
GR
/Font0 FFSF
0.4878 0.0478 m
GS
[0.0482 0.0000 0.0000 0.0482 0 0] CC
(Frequency / cm) show
GR
/Font0 FFSF
0.7875 0.0767 m
GS
[0.0341 0.0000 0.0000 0.0341 0 0] CC
(-1) show
GR
n
0.1500 0.1500 m
0.1500 0.8500 l
s
n
1.1500 0.1500 m
1.1500 0.8500 l
s
n
0.1500 0.2375 m
0.1600 0.2375 l
s
n
1.1500 0.2375 m
1.1400 0.2375 l
s
n
0.1500 0.4125 m
0.1600 0.4125 l
s
n
1.1500 0.4125 m
1.1400 0.4125 l
s
n
0.1500 0.5875 m
0.1600 0.5875 l
s
n
1.1500 0.5875 m
1.1400 0.5875 l
s
n
0.1500 0.7625 m
0.1600 0.7625 l
s
n
1.1500 0.7625 m
1.1400 0.7625 l
s
n
0.1500 0.1500 m
0.1700 0.1500 l
s
n
1.1500 0.1500 m
1.1300 0.1500 l
s
n
0.1500 0.3250 m
0.1700 0.3250 l
s
n
1.1500 0.3250 m
1.1300 0.3250 l
s
n
0.1500 0.5000 m
0.1700 0.5000 l
s
n
1.1500 0.5000 m
1.1300 0.5000 l
s
n
0.1500 0.6750 m
0.1700 0.6750 l
s
n
1.1500 0.6750 m
1.1300 0.6750 l
s
n
0.1500 0.8500 m
0.1700 0.8500 l
s
n
1.1500 0.8500 m
1.1300 0.8500 l
s
/Font0 FFSF
0.1196 0.1357 m
GS
[0.0431 0.0000 0.0000 0.0431 0 0] CC
(0) show
GR
/Font0 FFSF
0.0890 0.3105 m
GS
[0.0431 0.0000 0.0000 0.0431 0 0] CC
(0.5) show
GR
/Font0 FFSF
0.1231 0.4853 m
GS
[0.0431 0.0000 0.0000 0.0431 0 0] CC
(1) show
GR
/Font0 FFSF
0.0890 0.6605 m
GS
[0.0431 0.0000 0.0000 0.0431 0 0] CC
(1.5) show
GR
/Font0 FFSF
0.1196 0.8353 m
GS
[0.0431 0.0000 0.0000 0.0431 0 0] CC
(2) show
GR
/Font0 FFSF
0.0684 0.4082 m
GS
[0.0000 0.0482 -0.0482 0.0000 0 0] CC
(Response) show
GR
n
0.1500 0.1500 m
0.1500 0.8500 l
1.1500 0.8500 l
1.1500 0.1500 l
0.1500 0.1500 l
c
s
/Font0 FFSF
0.2245 0.9190 m
GS
[0.0420 0.0000 0.0000 0.0420 0 0] CC
(Frequency Response for a digital filter: 0-300 cm) show
GR
/Font0 FFSF
1.0539 0.9442 m
GS
[0.0297 0.0000 0.0000 0.0297 0 0] CC
(-1) show
GR
%%Trailer
%%BoundingBox: 21 21 725 592
%%DocumentNeededResources: font Times-Roman
%%EOF
